<?xml version="1.0" encoding="UTF-8" standalone="no"?>
<graphml xmlns="http://graphml.graphdrawing.org/xmlns" xmlns:java="http://www.yworks.com/xml/yfiles-common/1.0/java" xmlns:sys="http://www.yworks.com/xml/yfiles-common/markup/primitives/2.0" xmlns:x="http://www.yworks.com/xml/yfiles-common/markup/2.0" xmlns:xsi="http://www.w3.org/2001/XMLSchema-instance" xmlns:y="http://www.yworks.com/xml/graphml" xmlns:yed="http://www.yworks.com/xml/yed/3" xsi:schemaLocation="http://graphml.graphdrawing.org/xmlns http://www.yworks.com/xml/schema/graphml/1.1/ygraphml.xsd">
  <!--Created by yEd 3.23.2-->
  <key attr.name="Description" attr.type="string" for="graph" id="d0"/>
  <key for="port" id="d1" yfiles.type="portgraphics"/>
  <key for="port" id="d2" yfiles.type="portgeometry"/>
  <key for="port" id="d3" yfiles.type="portuserdata"/>
  <key attr.name="url" attr.type="string" for="node" id="d4"/>
  <key attr.name="description" attr.type="string" for="node" id="d5"/>
  <key for="node" id="d6" yfiles.type="nodegraphics"/>
  <key for="graphml" id="d7" yfiles.type="resources"/>
  <key attr.name="url" attr.type="string" for="edge" id="d8"/>
  <key attr.name="description" attr.type="string" for="edge" id="d9"/>
  <key for="edge" id="d10" yfiles.type="edgegraphics"/>
  <graph edgedefault="directed" id="G">
    <data key="d0" xml:space="preserve"/>
    <node id="n0">
      <data key="d6">
        <y:GenericNode configuration="com.yworks.entityRelationship.big_entity">
          <y:Geometry height="26.136000000000053" width="132.0" x="464.0" y="126.55199999999994"/>
          <y:Fill color="#E8EEF7" color2="#B7C9E3" transparent="false"/>
          <y:BorderStyle color="#000000" type="line" width="1.0"/>
          <y:NodeLabel alignment="center" autoSizePolicy="content" backgroundColor="#B7C9E3" configuration="com.yworks.entityRelationship.label.name" fontFamily="Dialog" fontSize="12" fontStyle="plain" hasLineColor="false" height="18.701171875" horizontalTextPosition="center" iconTextGap="4" modelName="internal" modelPosition="t" textColor="#000000" verticalTextPosition="bottom" visible="true" width="44.67578125" x="43.662109375" xml:space="preserve" y="4.0">clsMain</y:NodeLabel>
          <y:NodeLabel alignment="left" autoSizePolicy="content" configuration="com.yworks.entityRelationship.label.attributes" fontFamily="Dialog" fontSize="12" fontStyle="plain" hasBackgroundColor="false" hasLineColor="false" hasText="false" height="4.0" horizontalTextPosition="center" iconTextGap="4" modelName="custom" textColor="#000000" verticalTextPosition="top" visible="true" width="4.0" x="2.0" y="30.701171875">
            <y:LabelModel>
              <y:ErdAttributesNodeLabelModel/>
            </y:LabelModel>
            <y:ModelParameter>
              <y:ErdAttributesNodeLabelModelParameter/>
            </y:ModelParameter>
          </y:NodeLabel>
          <y:StyleProperties>
            <y:Property class="java.lang.Boolean" name="y.view.ShadowNodePainter.SHADOW_PAINTING" value="true"/>
          </y:StyleProperties>
        </y:GenericNode>
      </data>
    </node>
    <node id="n1">
      <data key="d6">
        <y:GenericNode configuration="com.yworks.entityRelationship.big_entity">
          <y:Geometry height="84.50400000000002" width="167.84000000000003" x="446.08" y="244.0"/>
          <y:Fill color="#E8EEF7" color2="#B7C9E3" transparent="false"/>
          <y:BorderStyle color="#000000" type="line" width="1.0"/>
          <y:NodeLabel alignment="center" autoSizePolicy="content" backgroundColor="#B7C9E3" configuration="com.yworks.entityRelationship.label.name" fontFamily="Dialog" fontSize="12" fontStyle="plain" hasLineColor="false" height="18.701171875" horizontalTextPosition="center" iconTextGap="4" modelName="internal" modelPosition="t" textColor="#000000" verticalTextPosition="bottom" visible="true" width="48.68359375" x="59.578203125000016" xml:space="preserve" y="4.0">clsMenú</y:NodeLabel>
          <y:NodeLabel alignment="left" autoSizePolicy="content" configuration="com.yworks.entityRelationship.label.attributes" fontFamily="Dialog" fontSize="12" fontStyle="plain" hasBackgroundColor="false" hasLineColor="false" height="48.103515625" horizontalTextPosition="center" iconTextGap="4" modelName="custom" textColor="#000000" verticalTextPosition="top" visible="true" width="165.396484375" x="2.0" xml:space="preserve" y="30.701171875">private clsGestor obj_gestor;

public void vo_mostrarMenu() <y:LabelModel><y:ErdAttributesNodeLabelModel/></y:LabelModel><y:ModelParameter><y:ErdAttributesNodeLabelModelParameter/></y:ModelParameter></y:NodeLabel>
          <y:StyleProperties>
            <y:Property class="java.lang.Boolean" name="y.view.ShadowNodePainter.SHADOW_PAINTING" value="true"/>
          </y:StyleProperties>
        </y:GenericNode>
      </data>
    </node>
    <node id="n2">
      <data key="d6">
        <y:GenericNode configuration="com.yworks.entityRelationship.big_entity">
          <y:Geometry height="183.2499999999999" width="341.3749999999999" x="359.31250000000006" y="403.53325000000007"/>
          <y:Fill color="#E8EEF7" color2="#B7C9E3" transparent="false"/>
          <y:BorderStyle color="#000000" type="line" width="1.0"/>
          <y:NodeLabel alignment="center" autoSizePolicy="content" backgroundColor="#B7C9E3" configuration="com.yworks.entityRelationship.label.name" fontFamily="Dialog" fontSize="12" fontStyle="plain" hasLineColor="false" height="18.701171875" horizontalTextPosition="center" iconTextGap="4" modelName="internal" modelPosition="t" textColor="#000000" verticalTextPosition="bottom" visible="true" width="54.677734375" x="143.34863281249994" xml:space="preserve" y="4.0">clsGestor</y:NodeLabel>
          <y:NodeLabel alignment="left" autoSizePolicy="content" configuration="com.yworks.entityRelationship.label.attributes" fontFamily="Dialog" fontSize="12" fontStyle="plain" hasBackgroundColor="false" hasLineColor="false" height="151.01171875" horizontalTextPosition="center" iconTextGap="4" modelName="custom" textColor="#000000" verticalTextPosition="top" visible="true" width="344.154296875" x="2.0" xml:space="preserve" y="30.701171875">private Map&lt;Integer, clsUsuarioRegistrado&gt; map_Usuarios;
private ArrayList&lt;clsReserva&gt; lst_reservas;
private ArrayList&lt;clsAlojamiento&gt; arrl_alojamientos;
private ArrayList&lt;clsAlojamiento&gt; arrl_alojamientosReservados;
private ArrayList&lt;clsVuelo&gt; arrl_vuelosReservados;
private Set&lt;clsVuelo&gt; set_vuelos;

public void vo_inicializarVuelos()
public void vo_inicializarAlojamientos() 
public void vo_inicializar() 
<y:LabelModel><y:ErdAttributesNodeLabelModel/></y:LabelModel><y:ModelParameter><y:ErdAttributesNodeLabelModelParameter/></y:ModelParameter></y:NodeLabel>
          <y:StyleProperties>
            <y:Property class="java.lang.Boolean" name="y.view.ShadowNodePainter.SHADOW_PAINTING" value="true"/>
          </y:StyleProperties>
        </y:GenericNode>
      </data>
    </node>
    <node id="n3">
      <data key="d6">
        <y:GenericNode configuration="com.yworks.entityRelationship.big_entity">
          <y:Geometry height="386.3749999999999" width="488.2499999999999" x="285.87500000000006" y="661.8125"/>
          <y:Fill color="#E8EEF7" color2="#B7C9E3" transparent="false"/>
          <y:BorderStyle color="#000000" type="line" width="1.0"/>
          <y:NodeLabel alignment="center" autoSizePolicy="content" backgroundColor="#B7C9E3" configuration="com.yworks.entityRelationship.label.name" fontFamily="Dialog" fontSize="12" fontStyle="plain" hasLineColor="false" height="18.701171875" horizontalTextPosition="center" iconTextGap="4" modelName="internal" modelPosition="t" textColor="#000000" verticalTextPosition="bottom" visible="true" width="49.357421875" x="219.44628906249994" xml:space="preserve" y="4.0">clsVuelo</y:NodeLabel>
          <y:NodeLabel alignment="left" autoSizePolicy="content" configuration="com.yworks.entityRelationship.label.attributes" fontFamily="Dialog" fontSize="12" fontStyle="plain" hasBackgroundColor="false" hasLineColor="false" height="356.828125" horizontalTextPosition="center" iconTextGap="4" modelName="custom" textColor="#000000" verticalTextPosition="top" visible="true" width="479.60546875" x="2.0" xml:space="preserve" y="30.701171875">private String str_id
private String str_nombre
private String str_destino
private String str_horaSalida
private String str_horaLlegada
private int int_cantidadEquipaje
private int int_numeroPasajeros
private int int_precio

public clsVuelo()
public clsVuelo(String str_paramDestino, String str_paramNombre,
     String fecha_llegada, int int_paramNumeroPasajeros, int int_paramCantidadEquipaje, 
     int int_paramPrecio)
public clsVuelo(String str_paramDestino, String str_paramHoraSalida, 
    String str_paramHoraLlegada, int int_paramCantidadEquipaje,
    int int_paramPrecio, String str_paramNombre, int int_paramNumeroPasajeros)
public clsVuelo(String str_paramDestino, String str_paramHoraSalida, 
    String str_paramHoraLlegada, int int_paramPrecio, String str_paramId)
public clsVuelo(String str_paramDestino, String str_paramNombre, 
    int int_paramNumeroPasajeros, int int_paramPrecio)
public clsVuelo(String str_paramDestino, String str_paramHoraSalida, 
    String str_paramHoraLlegada, String str_paramNombre, 
    int int_paramNumeroPasajeros, int int_paramCantidadEquipaje, 
    int int_paramPrecio)<y:LabelModel><y:ErdAttributesNodeLabelModel/></y:LabelModel><y:ModelParameter><y:ErdAttributesNodeLabelModelParameter/></y:ModelParameter></y:NodeLabel>
          <y:StyleProperties>
            <y:Property class="java.lang.Boolean" name="y.view.ShadowNodePainter.SHADOW_PAINTING" value="true"/>
          </y:StyleProperties>
        </y:GenericNode>
      </data>
    </node>
    <node id="n4">
      <data key="d6">
        <y:GenericNode configuration="com.yworks.entityRelationship.big_entity">
          <y:Geometry height="127.0" width="258.5625000000001" x="985.9374999999995" y="654.0"/>
          <y:Fill color="#E8EEF7" color2="#B7C9E3" transparent="false"/>
          <y:BorderStyle color="#000000" type="line" width="1.0"/>
          <y:NodeLabel alignment="center" autoSizePolicy="content" backgroundColor="#B7C9E3" configuration="com.yworks.entityRelationship.label.name" fontFamily="Dialog" fontSize="12" fontStyle="plain" hasLineColor="false" height="18.701171875" horizontalTextPosition="center" iconTextGap="4" modelName="internal" modelPosition="t" textColor="#000000" verticalTextPosition="bottom" visible="true" width="60.015625" x="99.2734375" xml:space="preserve" y="4.0">clsUsuario</y:NodeLabel>
          <y:NodeLabel alignment="left" autoSizePolicy="content" configuration="com.yworks.entityRelationship.label.attributes" fontFamily="Dialog" fontSize="12" fontStyle="plain" hasBackgroundColor="false" hasLineColor="false" height="62.8046875" horizontalTextPosition="center" iconTextGap="4" modelName="custom" textColor="#000000" verticalTextPosition="top" visible="true" width="244.087890625" x="2.0" xml:space="preserve" y="30.701171875">private enRol en_rol;

public clsUsuario()
public clsUsuario(String str_paramUbicacion)<y:LabelModel><y:ErdAttributesNodeLabelModel/></y:LabelModel><y:ModelParameter><y:ErdAttributesNodeLabelModelParameter/></y:ModelParameter></y:NodeLabel>
          <y:StyleProperties>
            <y:Property class="java.lang.Boolean" name="y.view.ShadowNodePainter.SHADOW_PAINTING" value="true"/>
          </y:StyleProperties>
        </y:GenericNode>
      </data>
    </node>
    <node id="n5">
      <data key="d6">
        <y:GenericNode configuration="com.yworks.entityRelationship.big_entity">
          <y:Geometry height="169.96875" width="381.9999999999999" x="-247.2343749999997" y="654.0"/>
          <y:Fill color="#E8EEF7" color2="#B7C9E3" transparent="false"/>
          <y:BorderStyle color="#000000" type="line" width="1.0"/>
          <y:NodeLabel alignment="center" autoSizePolicy="content" backgroundColor="#B7C9E3" configuration="com.yworks.entityRelationship.label.name" fontFamily="Dialog" fontSize="12" fontStyle="plain" hasLineColor="false" height="18.701171875" horizontalTextPosition="center" iconTextGap="4" modelName="internal" modelPosition="t" textColor="#000000" verticalTextPosition="bottom" visible="true" width="63.349609375" x="159.32519531249994" xml:space="preserve" y="4.0">clsReserva</y:NodeLabel>
          <y:NodeLabel alignment="left" autoSizePolicy="content" configuration="com.yworks.entityRelationship.label.attributes" fontFamily="Dialog" fontSize="12" fontStyle="plain" hasBackgroundColor="false" hasLineColor="false" height="106.908203125" horizontalTextPosition="center" iconTextGap="4" modelName="custom" textColor="#000000" verticalTextPosition="top" visible="true" width="385.521484375" x="2.0" xml:space="preserve" y="30.701171875">private LocalDate dt_fechaInicio
private LocalDate dt_fechaFinal
private String str_nombreReserva

public clsReserva()
public clsReserva(String str_destino2, LocalDate dt_fechaParamInicio , 
        LocalDate dt_fechaParamFinal , String str_paramNombre )<y:LabelModel><y:ErdAttributesNodeLabelModel/></y:LabelModel><y:ModelParameter><y:ErdAttributesNodeLabelModelParameter/></y:ModelParameter></y:NodeLabel>
          <y:StyleProperties>
            <y:Property class="java.lang.Boolean" name="y.view.ShadowNodePainter.SHADOW_PAINTING" value="true"/>
          </y:StyleProperties>
        </y:GenericNode>
      </data>
    </node>
    <node id="n6">
      <data key="d6">
        <y:GenericNode configuration="com.yworks.entityRelationship.big_entity">
          <y:Geometry height="444.08333333333326" width="301.9999999999999" x="-207.2343749999997" y="921.1874999999999"/>
          <y:Fill color="#E8EEF7" color2="#B7C9E3" transparent="false"/>
          <y:BorderStyle color="#000000" type="line" width="1.0"/>
          <y:NodeLabel alignment="center" autoSizePolicy="content" backgroundColor="#B7C9E3" configuration="com.yworks.entityRelationship.label.name" fontFamily="Dialog" fontSize="12" fontStyle="plain" hasLineColor="false" height="18.701171875" horizontalTextPosition="center" iconTextGap="4" modelName="internal" modelPosition="t" textColor="#000000" verticalTextPosition="bottom" visible="true" width="81.3671875" x="110.31640624999994" xml:space="preserve" y="4.0">clsAlojamiento</y:NodeLabel>
          <y:NodeLabel alignment="left" autoSizePolicy="content" configuration="com.yworks.entityRelationship.label.attributes" fontFamily="Dialog" fontSize="12" fontStyle="plain" hasBackgroundColor="false" hasLineColor="false" height="415.6328125" horizontalTextPosition="center" iconTextGap="4" modelName="custom" textColor="#000000" verticalTextPosition="top" visible="true" width="303.484375" x="2.0" xml:space="preserve" y="30.701171875000114">private String str_destino;
private int int_numeroHabitaciones
private int int_cantidad;
private String str_propietario;
private String str_nombreHuesped;
private int int_precio;
private LocalDate dt_fechaLlegada;
private LocalDate dt_fechaSalida;
private int int_numNoches;

public clsAlojamiento()
public clsAlojamiento ( LocalDate dt_fechaParamInicio , 
                        LocalDate dt_fechaParamFinal , 
                        String str_paramNombre,
                        String str_paramDestino,
                        int int_paramNumeroHabitaciones,
                        int int_paramCantidad,
                        String str_paramPropietario,
                        int int_paramPrecio,
                        LocalDate dt_paramFechaLlegada,
                        LocalDate dt_paramFechaSalida,
                        int int_paramNumNoches)
public clsAlojamiento(String str_paramDestino, 
                      LocalDate dt_paramFechaLlegada, 
                      LocalDate dt_paramFechaSalida, 
                      String str_paramNombreHuesped,
                      int int_paramNumNoches, 
                      int int_paramPrecio)
<y:LabelModel><y:ErdAttributesNodeLabelModel/></y:LabelModel><y:ModelParameter><y:ErdAttributesNodeLabelModelParameter/></y:ModelParameter></y:NodeLabel>
          <y:StyleProperties>
            <y:Property class="java.lang.Boolean" name="y.view.ShadowNodePainter.SHADOW_PAINTING" value="true"/>
          </y:StyleProperties>
        </y:GenericNode>
      </data>
    </node>
    <node id="n7">
      <data key="d6">
        <y:GenericNode configuration="com.yworks.entityRelationship.big_entity">
          <y:Geometry height="275.7500000000001" width="412.625" x="906.5624999999997" y="884.3749999999998"/>
          <y:Fill color="#E8EEF7" color2="#B7C9E3" transparent="false"/>
          <y:BorderStyle color="#000000" type="line" width="1.0"/>
          <y:NodeLabel alignment="center" autoSizePolicy="content" backgroundColor="#B7C9E3" configuration="com.yworks.entityRelationship.label.name" fontFamily="Dialog" fontSize="12" fontStyle="plain" hasLineColor="false" height="18.701171875" horizontalTextPosition="center" iconTextGap="4" modelName="internal" modelPosition="t" textColor="#000000" verticalTextPosition="bottom" visible="true" width="118.046875" x="147.2890624999999" xml:space="preserve" y="4.0">clsUsuarioRegistrado</y:NodeLabel>
          <y:NodeLabel alignment="left" autoSizePolicy="content" configuration="com.yworks.entityRelationship.label.attributes" fontFamily="Dialog" fontSize="12" fontStyle="plain" hasBackgroundColor="false" hasLineColor="false" height="209.81640625" horizontalTextPosition="center" iconTextGap="4" modelName="custom" textColor="#000000" verticalTextPosition="top" visible="true" width="415.486328125" x="2.0" xml:space="preserve" y="30.701171875">private String str_nombre
private String str_apellidos
private String str_dni
private String str_correo
private String str_clave

public clsusuarioregistrado()
public clsUsuarioRegistrado(String str_paramNombre, 
                                String str_paramApellido, 
                                String str_paramDni, 
                                String str_paramCorreo, 
                                String str_paramClave) 
public clsUsuarioRegistrado(String str_paramCorreo, String str_paramClave) 
public clsUsuarioRegistrado(String str_paramDni)
<y:LabelModel><y:ErdAttributesNodeLabelModel/></y:LabelModel><y:ModelParameter><y:ErdAttributesNodeLabelModelParameter/></y:ModelParameter></y:NodeLabel>
          <y:StyleProperties>
            <y:Property class="java.lang.Boolean" name="y.view.ShadowNodePainter.SHADOW_PAINTING" value="true"/>
          </y:StyleProperties>
        </y:GenericNode>
      </data>
    </node>
    <node id="n8">
      <data key="d6">
        <y:GenericNode configuration="com.yworks.entityRelationship.big_entity">
          <y:Geometry height="165.75" width="290.8541666666664" x="967.4479166666663" y="1263.4999999999998"/>
          <y:Fill color="#E8EEF7" color2="#B7C9E3" transparent="false"/>
          <y:BorderStyle color="#000000" type="line" width="1.0"/>
          <y:NodeLabel alignment="center" autoSizePolicy="content" backgroundColor="#B7C9E3" configuration="com.yworks.entityRelationship.label.name" fontFamily="Dialog" fontSize="12" fontStyle="plain" hasLineColor="false" height="18.701171875" horizontalTextPosition="center" iconTextGap="4" modelName="internal" modelPosition="t" textColor="#000000" verticalTextPosition="bottom" visible="true" width="134.04296875" x="78.40559895833326" xml:space="preserve" y="4.0">clsUsuarioAdministrador</y:NodeLabel>
          <y:NodeLabel alignment="left" autoSizePolicy="content" configuration="com.yworks.entityRelationship.label.attributes" fontFamily="Dialog" fontSize="12" fontStyle="plain" hasBackgroundColor="false" hasLineColor="false" height="136.310546875" horizontalTextPosition="center" iconTextGap="4" modelName="custom" textColor="#000000" verticalTextPosition="top" visible="true" width="230.7578125" x="2.0" xml:space="preserve" y="30.701171875">

public clsUsuarioAdministrador()
public clsUsuarioRegistradoAdministrador(
                String str_paramNombre, 
                String str_paramApellido, 
                String str_paramDni, 
                String str_paramCorreo, 
                String str_paramClave) <y:LabelModel><y:ErdAttributesNodeLabelModel/></y:LabelModel><y:ModelParameter><y:ErdAttributesNodeLabelModelParameter/></y:ModelParameter></y:NodeLabel>
          <y:StyleProperties>
            <y:Property class="java.lang.Boolean" name="y.view.ShadowNodePainter.SHADOW_PAINTING" value="true"/>
          </y:StyleProperties>
        </y:GenericNode>
      </data>
    </node>
    <node id="n9">
      <data key="d6">
        <y:GenericNode configuration="com.yworks.entityRelationship.big_entity">
          <y:Geometry height="99.5" width="290.8541666666665" x="1543.75" y="884.3749999999998"/>
          <y:Fill color="#E8EEF7" color2="#B7C9E3" transparent="false"/>
          <y:BorderStyle color="#000000" type="line" width="1.0"/>
          <y:NodeLabel alignment="center" autoSizePolicy="content" backgroundColor="#B7C9E3" configuration="com.yworks.entityRelationship.label.name" fontFamily="Dialog" fontSize="12" fontStyle="plain" hasLineColor="false" height="18.701171875" horizontalTextPosition="center" iconTextGap="4" modelName="internal" modelPosition="t" textColor="#000000" verticalTextPosition="bottom" visible="true" width="102.044921875" x="94.40462239583326" xml:space="preserve" y="4.0">clsUsuarioInvitado</y:NodeLabel>
          <y:NodeLabel alignment="left" autoSizePolicy="content" configuration="com.yworks.entityRelationship.label.attributes" fontFamily="Dialog" fontSize="12" fontStyle="plain" hasBackgroundColor="false" hasLineColor="false" height="62.8046875" horizontalTextPosition="center" iconTextGap="4" modelName="custom" textColor="#000000" verticalTextPosition="top" visible="true" width="284.78125" x="2.0" xml:space="preserve" y="30.701171875">private int int_numAccesos;

public clsUsuarioInvitado()
public clsUsuarioInvitado(int int_paramNumAccesos)<y:LabelModel><y:ErdAttributesNodeLabelModel/></y:LabelModel><y:ModelParameter><y:ErdAttributesNodeLabelModelParameter/></y:ModelParameter></y:NodeLabel>
          <y:StyleProperties>
            <y:Property class="java.lang.Boolean" name="y.view.ShadowNodePainter.SHADOW_PAINTING" value="true"/>
          </y:StyleProperties>
        </y:GenericNode>
      </data>
    </node>
    <node id="n10">
      <data key="d6">
        <y:GenericNode configuration="com.yworks.entityRelationship.big_entity">
          <y:Geometry height="55.75" width="303.2499999999998" x="832.4218749999993" y="375.5888671875"/>
          <y:Fill color="#E8EEF7" color2="#B7C9E3" transparent="false"/>
          <y:BorderStyle color="#000000" type="line" width="1.0"/>
          <y:NodeLabel alignment="center" autoSizePolicy="content" backgroundColor="#B7C9E3" configuration="com.yworks.entityRelationship.label.name" fontFamily="Dialog" fontSize="12" fontStyle="plain" hasLineColor="false" height="18.701171875" horizontalTextPosition="center" iconTextGap="4" modelName="internal" modelPosition="t" textColor="#000000" verticalTextPosition="bottom" visible="true" width="58.685546875" x="122.28222656249989" xml:space="preserve" y="4.0">itfProperty</y:NodeLabel>
          <y:NodeLabel alignment="left" autoSizePolicy="content" configuration="com.yworks.entityRelationship.label.attributes" fontFamily="Dialog" fontSize="12" fontStyle="plain" hasBackgroundColor="false" hasLineColor="false" height="18.701171875" horizontalTextPosition="center" iconTextGap="4" modelName="custom" textColor="#000000" verticalTextPosition="top" visible="true" width="296.142578125" x="2.0" xml:space="preserve" y="30.701171875">public Object getObjectProperty (String str_propiedad);<y:LabelModel><y:ErdAttributesNodeLabelModel/></y:LabelModel><y:ModelParameter><y:ErdAttributesNodeLabelModelParameter/></y:ModelParameter></y:NodeLabel>
          <y:StyleProperties>
            <y:Property class="java.lang.Boolean" name="y.view.ShadowNodePainter.SHADOW_PAINTING" value="true"/>
          </y:StyleProperties>
        </y:GenericNode>
      </data>
    </node>
    <node id="n11">
      <data key="d6">
        <y:GenericNode configuration="com.yworks.entityRelationship.big_entity">
          <y:Geometry height="139.12416000000007" width="309.6025599999999" x="-672.8515624999995" y="675.484375"/>
          <y:Fill color="#E8EEF7" color2="#B7C9E3" transparent="false"/>
          <y:BorderStyle color="#000000" type="line" width="1.0"/>
          <y:NodeLabel alignment="center" autoSizePolicy="content" backgroundColor="#B7C9E3" configuration="com.yworks.entityRelationship.label.name" fontFamily="Dialog" fontSize="12" fontStyle="plain" hasLineColor="false" height="18.701171875" horizontalTextPosition="center" iconTextGap="4" modelName="internal" modelPosition="t" textColor="#000000" verticalTextPosition="bottom" visible="true" width="88.041015625" x="110.7807721874999" xml:space="preserve" y="4.0">clsValoraciones</y:NodeLabel>
          <y:NodeLabel alignment="left" autoSizePolicy="content" configuration="com.yworks.entityRelationship.label.attributes" fontFamily="Dialog" fontSize="12" fontStyle="plain" hasBackgroundColor="false" hasLineColor="false" height="106.908203125" horizontalTextPosition="center" iconTextGap="4" modelName="custom" textColor="#000000" verticalTextPosition="top" visible="true" width="305.4765625" x="2.0" xml:space="preserve" y="30.701171875">private int int_numEstrellas
private int int_nota
private String str_comentario

public clsValoraciones()
public clsValoraciones(int int_NumEstrellas, int int_nota, 
    String str_comentario)<y:LabelModel><y:ErdAttributesNodeLabelModel/></y:LabelModel><y:ModelParameter><y:ErdAttributesNodeLabelModelParameter/></y:ModelParameter></y:NodeLabel>
          <y:StyleProperties>
            <y:Property class="java.lang.Boolean" name="y.view.ShadowNodePainter.SHADOW_PAINTING" value="true"/>
          </y:StyleProperties>
        </y:GenericNode>
      </data>
    </node>
    <node id="n12">
      <data key="d6">
        <y:GenericNode configuration="com.yworks.entityRelationship.big_entity">
          <y:Geometry height="26.64800000000008" width="132.0" x="-122.23437499999972" y="201.50400000000002"/>
          <y:Fill color="#E8EEF7" color2="#B7C9E3" transparent="false"/>
          <y:BorderStyle color="#000000" type="line" width="1.0"/>
          <y:NodeLabel alignment="center" autoSizePolicy="content" backgroundColor="#B7C9E3" configuration="com.yworks.entityRelationship.label.name" fontFamily="Dialog" fontSize="12" fontStyle="plain" hasLineColor="false" height="18.701171875" horizontalTextPosition="center" iconTextGap="4" modelName="internal" modelPosition="t" textColor="#000000" verticalTextPosition="bottom" visible="true" width="79.369140625" x="26.3154296875" xml:space="preserve" y="4.0">clsConstantes</y:NodeLabel>
          <y:NodeLabel alignment="left" autoSizePolicy="content" configuration="com.yworks.entityRelationship.label.attributes" fontFamily="Dialog" fontSize="12" fontStyle="plain" hasBackgroundColor="false" hasLineColor="false" hasText="false" height="4.0" horizontalTextPosition="center" iconTextGap="4" modelName="custom" textColor="#000000" verticalTextPosition="top" visible="true" width="4.0" x="2.0" y="30.701171875">
            <y:LabelModel>
              <y:ErdAttributesNodeLabelModel/>
            </y:LabelModel>
            <y:ModelParameter>
              <y:ErdAttributesNodeLabelModelParameter/>
            </y:ModelParameter>
          </y:NodeLabel>
          <y:StyleProperties>
            <y:Property class="java.lang.Boolean" name="y.view.ShadowNodePainter.SHADOW_PAINTING" value="true"/>
          </y:StyleProperties>
        </y:GenericNode>
      </data>
    </node>
    <edge id="e0" source="n0" target="n1">
      <data key="d10">
        <y:PolyLineEdge>
          <y:Path sx="0.0" sy="0.0" tx="0.0" ty="0.0"/>
          <y:LineStyle color="#000000" type="dashed" width="1.0"/>
          <y:Arrows source="none" target="plain"/>
          <y:BendStyle smoothed="false"/>
        </y:PolyLineEdge>
      </data>
    </edge>
    <edge id="e1" source="n1" target="n2">
      <data key="d10">
        <y:PolyLineEdge>
          <y:Path sx="0.0" sy="0.0" tx="0.0" ty="0.0"/>
          <y:LineStyle color="#000000" type="dashed" width="1.0"/>
          <y:Arrows source="none" target="plain"/>
          <y:BendStyle smoothed="false"/>
        </y:PolyLineEdge>
      </data>
    </edge>
    <edge id="e2" source="n2" target="n4">
      <data key="d10">
        <y:PolyLineEdge>
          <y:Path sx="0.0" sy="0.0" tx="0.0" ty="0.0">
            <y:Point x="1115.2187499999995" y="495.15825"/>
          </y:Path>
          <y:LineStyle color="#000000" type="dashed" width="1.0"/>
          <y:Arrows source="none" target="plain"/>
          <y:BendStyle smoothed="false"/>
        </y:PolyLineEdge>
      </data>
    </edge>
    <edge id="e3" source="n2" target="n5">
      <data key="d10">
        <y:PolyLineEdge>
          <y:Path sx="0.0" sy="0.0" tx="0.0" ty="0.0">
            <y:Point x="-56.23437499999977" y="495.15825"/>
          </y:Path>
          <y:LineStyle color="#000000" type="dashed" width="1.0"/>
          <y:Arrows source="none" target="plain"/>
          <y:BendStyle smoothed="false"/>
        </y:PolyLineEdge>
      </data>
    </edge>
    <edge id="e4" source="n6" target="n5">
      <data key="d10">
        <y:PolyLineEdge>
          <y:Path sx="0.0" sy="0.0" tx="0.0" ty="0.0"/>
          <y:LineStyle color="#000000" type="line" width="1.0"/>
          <y:Arrows source="none" target="white_delta"/>
          <y:BendStyle smoothed="false"/>
        </y:PolyLineEdge>
      </data>
    </edge>
    <edge id="e5" source="n7" target="n4">
      <data key="d10">
        <y:PolyLineEdge>
          <y:Path sx="0.0" sy="0.0" tx="0.0" ty="0.0"/>
          <y:LineStyle color="#000000" type="line" width="1.0"/>
          <y:Arrows source="none" target="white_delta"/>
          <y:BendStyle smoothed="false"/>
        </y:PolyLineEdge>
      </data>
    </edge>
    <edge id="e6" source="n8" target="n7">
      <data key="d10">
        <y:PolyLineEdge>
          <y:Path sx="0.0" sy="0.0" tx="0.0" ty="0.0"/>
          <y:LineStyle color="#000000" type="line" width="1.0"/>
          <y:Arrows source="none" target="white_delta"/>
          <y:BendStyle smoothed="false"/>
        </y:PolyLineEdge>
      </data>
    </edge>
    <edge id="e7" source="n9" target="n4">
      <data key="d10">
        <y:PolyLineEdge>
          <y:Path sx="0.0" sy="0.0" tx="0.0" ty="0.0">
            <y:Point x="1689.1770833333333" y="717.5"/>
          </y:Path>
          <y:LineStyle color="#000000" type="line" width="1.0"/>
          <y:Arrows source="none" target="white_delta"/>
          <y:BendStyle smoothed="false"/>
        </y:PolyLineEdge>
      </data>
    </edge>
    <edge id="e8" source="n2" target="n10">
      <data key="d10">
        <y:PolyLineEdge>
          <y:Path sx="0.0" sy="0.0" tx="0.0" ty="0.0">
            <y:Point x="984.0468749999992" y="495.15825"/>
          </y:Path>
          <y:LineStyle color="#000000" type="dashed" width="1.0"/>
          <y:Arrows source="none" target="plain"/>
          <y:BendStyle smoothed="false"/>
        </y:PolyLineEdge>
      </data>
    </edge>
    <edge id="e9" source="n1" target="n10">
      <data key="d10">
        <y:PolyLineEdge>
          <y:Path sx="0.0" sy="0.0" tx="0.0" ty="0.0">
            <y:Point x="984.0468749999992" y="286.252"/>
          </y:Path>
          <y:LineStyle color="#000000" type="dashed" width="1.0"/>
          <y:Arrows source="none" target="plain"/>
          <y:BendStyle smoothed="false"/>
        </y:PolyLineEdge>
      </data>
    </edge>
    <edge id="e10" source="n2" target="n11">
      <data key="d10">
        <y:PolyLineEdge>
          <y:Path sx="0.0" sy="0.0" tx="0.0" ty="0.0">
            <y:Point x="-518.0502824999996" y="495.15825"/>
          </y:Path>
          <y:LineStyle color="#000000" type="dashed" width="1.0"/>
          <y:Arrows source="none" target="plain"/>
          <y:BendStyle smoothed="false"/>
        </y:PolyLineEdge>
      </data>
    </edge>
    <edge id="e11" source="n3" target="n2">
      <data key="d9"/>
      <data key="d10">
        <y:PolyLineEdge>
          <y:Path sx="0.0" sy="0.0" tx="0.0" ty="0.0"/>
          <y:LineStyle color="#000000" type="line" width="1.0"/>
          <y:Arrows source="none" target="none"/>
          <y:BendStyle smoothed="false"/>
        </y:PolyLineEdge>
      </data>
    </edge>
    <edge id="e12" source="n3" target="n10">
      <data key="d9"/>
      <data key="d10">
        <y:PolyLineEdge>
          <y:Path sx="0.0" sy="0.0" tx="0.0" ty="0.0"/>
          <y:LineStyle color="#000000" type="dashed" width="1.0"/>
          <y:Arrows source="none" target="plain"/>
          <y:BendStyle smoothed="false"/>
        </y:PolyLineEdge>
      </data>
    </edge>
  </graph>
  <data key="d7">
    <y:Resources/>
  </data>
</graphml>
